[gd_resource type="TileSet" load_steps=3 format=3 uid="uid://yq8vhrc8emnt"]

[ext_resource type="Texture2D" uid="uid://dafqohaavv88d" path="res://assets/tiles/TileMap.png" id="1_cs2rn"]

[sub_resource type="TileSetAtlasSource" id="TileSetAtlasSource_kytpo"]
texture = ExtResource("1_cs2rn")
texture_region_size = Vector2i(32, 32)
0:0/0 = 0
1:0/0 = 0
2:0/0 = 0
3:0/0 = 0
4:0/0 = 0
5:0/0 = 0
6:0/0 = 0
7:0/0 = 0
8:0/0 = 0
9:0/0 = 0
10:0/0 = 0
11:0/0 = 0
12:0/0 = 0
13:0/0 = 0
14:0/0 = 0
15:0/0 = 0
0:1/0 = 0
1:1/0 = 0
2:1/0 = 0
3:1/0 = 0
4:1/0 = 0
5:1/0 = 0
6:1/0 = 0
7:1/0 = 0
8:1/0 = 0
9:1/0 = 0
10:1/0 = 0
11:1/0 = 0
12:1/0 = 0
13:1/0 = 0
14:1/0 = 0
15:1/0 = 0
0:2/0 = 0
1:2/0 = 0
2:2/0 = 0
3:2/0 = 0
4:2/0 = 0
5:2/0 = 0
6:2/0 = 0
7:2/0 = 0
8:2/0 = 0
9:2/0 = 0
10:2/0 = 0
11:2/0 = 0
12:2/0 = 0
13:2/0 = 0
14:2/0 = 0
15:2/0 = 0
0:3/next_alternative_id = 4
0:3/0 = 0
0:3/1 = 1
0:3/1/transpose = true
0:3/2 = 2
0:3/2/flip_v = true
0:3/2/transpose = true
0:3/3 = 3
0:3/3/flip_h = true
0:3/3/transpose = true
1:3/next_alternative_id = 4
1:3/0 = 0
1:3/1 = 1
1:3/1/transpose = true
1:3/2 = 2
1:3/2/flip_v = true
1:3/2/transpose = true
1:3/3 = 3
1:3/3/flip_h = true
1:3/3/transpose = true
2:3/0 = 0
3:3/0 = 0
4:3/0 = 0
5:3/0 = 0
6:3/0 = 0
7:3/0 = 0
8:3/0 = 0
9:3/0 = 0
10:3/0 = 0
11:3/0 = 0
12:3/0 = 0
13:3/0 = 0
14:3/0 = 0
15:3/0 = 0

[resource]
tile_size = Vector2i(32, 32)
sources/0 = SubResource("TileSetAtlasSource_kytpo")
