[gd_resource type="Theme" load_steps=2 format=3 uid="uid://cyality3un8wj"]

[ext_resource type="FontFile" uid="uid://8n4ldf6sxqmf" path="res://assets/gui/Ubuntu_font/Ubuntu-B.ttf" id="1_me6hk"]

[resource]
default_font = ExtResource("1_me6hk")
Button/font_sizes/font_size = 25
Button/fonts/font = ExtResource("1_me6hk")
